{
  "actions": [
{
      "name": "set BAGIC Server",
      "params": {
        "server": "batrvt200.mycariq.com",
        "port": "49999",
		"apn":"mycariq.com"
      },
      "class": "TRConfig.SetServer"
    }
  ]
}